{
  "content": [
    {
      "id": "22222222-2222-2222-2222-222222222222",
      "customerId": "bbbbbbbb-bbbb-bbbb-bbbb-bbbbbbbbbbbb",
      "status": "CONFIRMED",
      "total": 15.00,
      "items": []
    }
  ],
  "page": 1,
  "size": 1,
  "totalElements": 2,
  "totalPages": 2,
  "first": false,
  "last": true
}
